==============================================================
==============================================================
4DGL Compiler 2.8.1.0 -- Copyright 2004-2016 4D Labs
** \\192.168.1.125\RetD_Projets\smart-Cool XL\programmation\zone tabac.4DWork\zone tabac.4DGenieS
compiled Tue Oct 02 09:53:28 2018

==============================================================
==============================================================


No Ref for file
[LINKING]
function 17, main(main entry point), address 0x153a, stack usage 108 + 4 
comTX                                  1  word[50]  [local]  (usage 3)
TouchStatus                           54  word     [local]  (usage 39)
cmdi                                  51  word     [local]  (usage 60)
i                                     52  word     [local]  (usage 138)
j                                     53  word     [local]  (usage 18)

[LINKING]
function 16, DoGFXObjects, address 0x1e72, stack usage 0 + 4 (Empty Function)
[LINKING]
function 15, UpdateObjects, address 0x1e73, stack usage 4 + 4 
newval                                 1  word     [arg]  (usage 39)
otherOBJ                               2  word     [local]  (usage 114)
IPidx                                  1  word     [local]  (usage 18)

[LINKING]
function 14, ActivateForm, address 0x20ea, stack usage 6 + 4 
newform                                1  word     [arg]  (usage 3)
i                                      1  word     [local]  (usage 60)
j                                      2  word     [local]  (usage 21)

[LINKING]
function 13, ledDigitsDisplay, address 0x2256, stack usage 20 + 4 
num                                    7  word[4]  [local]  (usage 6)
newval                                 6  word     [local]  (usage 6)
imgidx                                 1  word     [arg]  (usage 21)
setptr                                 2  word     [arg]  (usage 3)
typeptr                                1  word     [arg]  (usage 9)
lb                                     5  word     [local]  (usage 9)
i                                      1  word     [local]  (usage 24)
j                                      2  word     [local]  (usage 27)
k                                      3  word     [local]  (usage 12)
l                                      4  word     [local]  (usage 12)

[LINKING]
function 12, TurnOffButtons, address 0x237e, stack usage 6 + 4 
j                                      1  word     [local]  (usage 12)
k                                      2  word     [local]  (usage 18)
l                                      3  word     [local]  (usage 27)
group                                  1  word     [arg]  (usage 3)

[LINKING]
function 11, WriteObject, address 0x245c, stack usage 8 + 4 
ObjectType                             1  word     [arg]  (usage 18)
NewVal                                 2  word     [arg]  (usage 24)
Objects                                4  word     [local]  (usage 6)
ObjectIdx                              1  word     [arg]  (usage 15)
i                                      1  word     [local]  (usage 63)
j                                      2  word     [local]  (usage 21)
k                                      3  word     [local]  (usage 21)

[LINKING]
function 10, ReadObject, address 0x26e2, stack usage 6 + 4 
ObjectType                             1  word     [arg]  (usage 30)
Objects                                3  word     [local]  (usage 6)
ObjectIdx                              1  word     [arg]  (usage 9)
j                                      1  word     [local]  (usage 9)
k                                      2  word     [local]  (usage 21)

[LINKING]
function 9, SendReport, address 0x279c, stack usage 0 + 4 
objn                                   2  word     [arg]  (usage 3)
val                                    2  word     [arg]  (usage 6)
objt                                   1  word     [arg]  (usage 3)
id                                     1  word     [arg]  (usage 3)

[LINKING]
function 8, seroutOcs, address 0x27ce, stack usage 0 + 4 

[LINKING]
function 7, nak0, address 0x27df, stack usage 0 + 4 

[LINKING]
function 6, seroutCS, address 0x27ef, stack usage 0 + 4 
op                                     1  word     [arg]  (usage 6)

[LINKING]
function 5, kbUp, address 0x2802, stack usage 0 + 4 
iKB                                    1  word     [arg]  (usage 12)
oKB                                    1  word     [arg]  (usage 33)

[LINKING]
function 4, setkeystate, address 0x2890, stack usage 0 + 4 
idx                                    1  word     [arg]  (usage 3)
key                                    1  word     [arg]  (usage 6)

[LINKING]
function 3, kbDown, address 0x28a9, stack usage 4 + 4 
rtn                                    2  word     [local]  (usage 6)
key                                    2  word     [arg]  (usage 27)
KBKeys                                 2  word     [arg]  (usage 3)
iKB                                    1  word     [arg]  (usage 12)
oKB                                    1  word     [arg]  (usage 114)
keyval                                 1  word     [local]  (usage 21)

[LINKING]
function 2, refreshstate, address 0x2ab2, stack usage 2 + 4 
iKB                                    1  word     [arg]  (usage 18)
oKB                                    1  word     [arg]  (usage 33)
shifted                                1  word     [local]  (usage 21)

[LINKING]
function 1, PrintStrings, address 0x2b7c, stack usage 14 + 4 
String                                 2  word     [arg]  (usage 6)
StringID                               1  word     [local]  (usage 78)
offs32                                 4  word[2]  [local]  (usage 6)
ch                                     3  word     [local]  (usage 24)
res32                                  6  word[2]  [local]  (usage 18)
i                                      2  word     [local]  (usage 9)
msgid                                  1  word     [arg]  (usage 12)
ID                                     1  word     [arg]  (usage 12)

[RESERVED WORDS]
#inherit
#LISTCODE
#MODE
#STACK
#OPTIMIZE_ON
#OPTIMIZE_OFF
byte
word
dword
float
private
#IF
#IFNOT
#ELSE
#ENDIF
#CONST
#constant
#USE
USING
func
endfunc
var
#STOP
#DATA
#ASM
#END
#platform
EXISTS
#ERROR
#MESSAGE
#NOTICE
sizeof
argcount
if
else
endif
while
wend
repeat
until
forever
return
break
continue
for
next
switch
case
default
endswitch
print
goto
gosub
endsub
mcall
lookup8
lookup16

[MACRO]

[CONSTANTS]
__MAXMEM                          00008000      32768  (usage 1)
__MAXPROG                         00007FEE      32750  (usage 1)
ACK                               00000006          6  (usage 12)
BACKGROUND_COLOUR                 00000011         17  (usage 3)
BLACK                             00000000          0  (usage 90)
CMDLenMAX                         00000050         80  (usage 12)
ColorBGimage                      00000020         32  (usage 39)
COM0                              0000F804      63492  (usage 3)
DIABLO                            00000003          3  (usage 3)
FLASHBANK_0                       00000000          0  (usage 3)
i4Dbutton0                        00000039         57  (usage 3)
i4Dbutton1                        0000001C         28  (usage 3)
i4Dbutton2                        00000016         22  (usage 3)
i4Dbutton4                        0000001D         29  (usage 3)
i4Dbutton5                        00000040         64  (usage 3)
I_ENABLED                         00008000      32768  (usage 6)
I_STAYONTOP                       00000100        256  (usage 3)
I_TOUCH_DISABLE                   00000020         32  (usage 12)
iDipswitch0                       00000054         84  (usage 3)
iImage2                           00000086        134  (usage 3)
iKeyboard0                        00000042         66  (usage 3)
iLed2                             0000009A        154  (usage 3)
iLed3                             0000009B        155  (usage 3)
iLed4                             0000009E        158  (usage 3)
iLed6                             0000009F        159  (usage 3)
iLeddigits0                       0000007E        126  (usage 3)
iLeddigits1                       00000080        128  (usage 3)
iLeddigits2                       00000021         33  (usage 3)
iLeddigits3                       00000023         35  (usage 3)
IMAGE_FLAGS                       00000006          6  (usage 3)
IMAGE_HEIGHT                      00000005          5  (usage 6)
IMAGE_INDEX                       00000009          9  (usage 60)
IMAGE_TAG                         0000000C         12  (usage 12)
IMAGE_TAG2                        0000000D         13  (usage 9)
IMAGE_WIDTH                       00000004          4  (usage 6)
IMAGE_XPOS                        00000002          2  (usage 15)
IMAGE_YPOS                        00000003          3  (usage 12)
IPDatasize                        00000016         22  (usage 3)
iStatictext0                      00000017         23  (usage 3)
iStatictext1                      00000018         24  (usage 3)
iStatictext10                     0000001E         30  (usage 3)
iStatictext100                    00000004          4  (usage 3)
iStatictext101                    00000058         88  (usage 3)
iStatictext102                    00000087        135  (usage 3)
iStatictext11                     0000001F         31  (usage 3)
iStatictext110                    0000008A        138  (usage 3)
iStatictext111                    0000008B        139  (usage 3)
iStatictext112                    0000008D        141  (usage 3)
iStatictext117                    00000091        145  (usage 3)
iStatictext118                    00000094        148  (usage 3)
iStatictext119                    00000095        149  (usage 3)
iStatictext12                     00000075        117  (usage 3)
iStatictext120                    00000096        150  (usage 3)
iStatictext121                    00000097        151  (usage 3)
iStatictext122                    00000098        152  (usage 3)
iStatictext123                    0000009C        156  (usage 3)
iStatictext124                    0000009D        157  (usage 3)
iStatictext128                    000000A0        160  (usage 3)
iStatictext129                    000000A3        163  (usage 3)
iStatictext13                     00000076        118  (usage 3)
iStatictext130                    000000A4        164  (usage 3)
iStatictext14                     0000007D        125  (usage 3)
iStatictext15                     00000001          1  (usage 3)
iStatictext16                     00000020         32  (usage 3)
iStatictext17                     0000000F         15  (usage 3)
iStatictext18                     00000010         16  (usage 3)
iStatictext19                     00000011         17  (usage 3)
iStatictext2                      00000019         25  (usage 3)
iStatictext20                     00000012         18  (usage 3)
iStatictext21                     00000026         38  (usage 3)
iStatictext22                     00000027         39  (usage 3)
iStatictext23                     00000028         40  (usage 3)
iStatictext24                     00000029         41  (usage 3)
iStatictext25                     00000051         81  (usage 3)
iStatictext26                     0000002A         42  (usage 3)
iStatictext27                     0000002B         43  (usage 3)
iStatictext28                     0000002C         44  (usage 3)
iStatictext29                     0000002D         45  (usage 3)
iStatictext3                      00000090        144  (usage 3)
iStatictext30                     0000002E         46  (usage 3)
iStatictext31                     00000037         55  (usage 3)
iStatictext32                     00000038         56  (usage 3)
iStatictext33                     00000013         19  (usage 3)
iStatictext34                     00000014         20  (usage 3)
iStatictext35                     00000002          2  (usage 3)
iStatictext36                     00000059         89  (usage 3)
iStatictext37                     0000005A         90  (usage 3)
iStatictext38                     00000003          3  (usage 3)
iStatictext39                     00000008          8  (usage 3)
iStatictext4                      0000000A         10  (usage 3)
iStatictext40                     0000005B         91  (usage 3)
iStatictext41                     0000005E         94  (usage 3)
iStatictext42                     00000069        105  (usage 3)
iStatictext43                     0000006A        106  (usage 3)
iStatictext44                     0000006D        109  (usage 3)
iStatictext45                     0000006F        111  (usage 3)
iStatictext46                     00000071        113  (usage 3)
iStatictext47                     00000072        114  (usage 3)
iStatictext48                     00000053         83  (usage 3)
iStatictext49                     0000005F         95  (usage 3)
iStatictext5                      0000000B         11  (usage 3)
iStatictext50                     00000064        100  (usage 3)
iStatictext51                     00000065        101  (usage 3)
iStatictext52                     00000025         37  (usage 3)
iStatictext55                     00000055         85  (usage 3)
iStatictext56                     00000056         86  (usage 3)
iStatictext57                     00000057         87  (usage 3)
iStatictext6                      0000000C         12  (usage 3)
iStatictext7                      0000000D         13  (usage 3)
iStatictext77                     0000003A         58  (usage 3)
iStatictext78                     0000003B         59  (usage 3)
iStatictext79                     0000003C         60  (usage 3)
iStatictext8                      0000000E         14  (usage 3)
iStatictext80                     0000003D         61  (usage 3)
iStatictext81                     0000003E         62  (usage 3)
iStatictext82                     0000003F         63  (usage 3)
iStatictext9                      0000001A         26  (usage 3)
iUserimages1                      0000001B         27  (usage 3)
iWinbutton0                       0000008F        143  (usage 3)
iWinbutton1                       0000005C         92  (usage 3)
iWinbutton10                      00000031         49  (usage 3)
iWinbutton11                      00000032         50  (usage 3)
iWinbutton12                      00000033         51  (usage 3)
iWinbutton13                      00000034         52  (usage 3)
iWinbutton14                      00000035         53  (usage 3)
iWinbutton15                      00000036         54  (usage 3)
iWinbutton16                      00000063         99  (usage 3)
iWinbutton17                      00000066        102  (usage 3)
iWinbutton2                       0000005D         93  (usage 3)
iWinbutton20                      00000041         65  (usage 3)
iWinbutton22                      00000074        116  (usage 3)
iWinbutton23                      00000077        119  (usage 3)
iWinbutton24                      00000078        120  (usage 3)
iWinbutton25                      00000079        121  (usage 3)
iWinbutton26                      0000007A        122  (usage 3)
iWinbutton27                      0000007B        123  (usage 3)
iWinbutton28                      0000007C        124  (usage 3)
iWinbutton29                      00000000          0  (usage 3)
iWinbutton3                       00000060         96  (usage 3)
iWinbutton30                      00000068        104  (usage 3)
iWinbutton31                      0000006B        107  (usage 3)
iWinbutton32                      0000006C        108  (usage 3)
iWinbutton33                      0000006E        110  (usage 3)
iWinbutton34                      00000070        112  (usage 3)
iWinbutton35                      00000073        115  (usage 3)
iWinbutton36                      00000052         82  (usage 3)
iWinbutton39                      00000005          5  (usage 3)
iWinbutton4                       00000061         97  (usage 3)
iWinbutton5                       00000062         98  (usage 3)
iWinbutton54                      00000006          6  (usage 3)
iWinbutton55                      00000007          7  (usage 3)
iWinbutton56                      00000009          9  (usage 3)
iWinbutton59                      00000082        130  (usage 3)
iWinbutton6                       00000067        103  (usage 3)
iWinbutton60                      00000083        131  (usage 3)
iWinbutton65                      00000084        132  (usage 3)
iWinbutton67                      00000085        133  (usage 3)
iWinbutton7                       00000015         21  (usage 3)
iWinbutton72                      00000088        136  (usage 3)
iWinbutton77                      00000089        137  (usage 3)
iWinbutton8                       0000002F         47  (usage 3)
iWinbutton80                      0000008C        140  (usage 3)
iWinbutton86                      00000092        146  (usage 3)
iWinbutton87                      00000093        147  (usage 3)
iWinbutton88                      00000099        153  (usage 3)
iWinbutton89                      0000008E        142  (usage 3)
iWinbutton9                       00000030         48  (usage 3)
iWinbutton91                      000000A1        161  (usage 3)
iWinbutton92                      000000A2        162  (usage 3)
KbCapsBit                         00000002          2  (usage 12)
KbCtrlBit                         00000004          4  (usage 21)
KbShiftBit                        00000001          1  (usage 18)
KbShiftCapsBits                   00000003          3  (usage 18)
LANDSCAPE                         00000000          0  (usage 3)
MaxTotObjects                     00000021         33  (usage 6)
NAK                               00000015         21  (usage 3)
nInputs                           00000072        114  (usage 3)
nKeyboards                        00000001          1  (usage 9)
nStrings                          00000046         70  (usage 3)
OFF                               00000000          0  (usage 6)
Ofs_Digits_Digits                 00000002          2  (usage 9)
Ofs_Digits_LeadingBlanks          00000008          8  (usage 3)
Ofs_Digits_Left                   00000000          0  (usage 3)
Ofs_Digits_MinDigits              00000004          4  (usage 3)
Ofs_Digits_Widthdigit             00000006          6  (usage 3)
Ofs_IPD_DOWN                      00000010         16  (usage 6)
Ofs_IPD_OBJVIDX                   00000014         20  (usage 18)
Ofs_IPD_P1                        00000002          2  (usage 18)
Ofs_IPD_P2                        00000004          4  (usage 54)
Ofs_IPD_P3                        00000006          6  (usage 15)
Ofs_IPD_P4                        00000008          8  (usage 9)
Ofs_IPD_P5                        0000000A         10  (usage 9)
Ofs_IPD_P6                        0000000C         12  (usage 18)
Ofs_IPD_RELEASE                   00000012         18  (usage 9)
Ofs_kb_Buttons                    0000000A         10  (usage 12)
Ofs_kb_Caps                       00000004          4  (usage 12)
Ofs_kb_Ctrl1                      00000007          7  (usage 12)
Ofs_kb_Ctrl2                      00000008          8  (usage 12)
Ofs_kb_Down                       00000000          0  (usage 9)
Ofs_kb_Ign                        00000003          3  (usage 18)
Ofs_kb_Lock                       00000009          9  (usage 6)
Ofs_kb_Mvt                        00000001          1  (usage 18)
Ofs_kb_Shift1                     00000005          5  (usage 6)
Ofs_kb_Shift2                     00000006          6  (usage 6)
Ofs_kb_ShiftCaps                  0000000B         11  (usage 3)
Ofs_kb_State                      00000002          2  (usage 63)
Ofs_String_Ansi                   00000016         22  (usage 3)
Ofs_String_BGColor                00000010         16  (usage 6)
Ofs_String_FGColor                0000000E         14  (usage 3)
Ofs_String_FontAttribs            00000012         18  (usage 3)
Ofs_String_Form                   00000018         24  (usage 3)
Ofs_String_Size                   00000004          4  (usage 3)
Ofs_String_StartH                 00000000          0  (usage 3)
Ofs_String_StartL                 00000002          2  (usage 3)
Ofs_String_Transparent            00000014         20  (usage 3)
Ofs_String_x1                     00000006          6  (usage 12)
Ofs_String_x2                     0000000A         10  (usage 9)
Ofs_String_y1                     00000008          8  (usage 12)
Ofs_String_y2                     0000000C         12  (usage 9)
ON                                00000001          1  (usage 6)
OT_ACTIVATE                       00000067        103  (usage 3)
OT_MAGIC                          0000006C        108  (usage 3)
OT_NEXTFRAME                      00000068        104  (usage 3)
OT_NEXTSTRING                     0000006A        106  (usage 3)
OT_PREVFRAME                      00000069        105  (usage 3)
OT_PREVSTRING                     0000006B        107  (usage 3)
OT_REPORT                         00000064        100  (usage 174)
OT_SETANOTHER                     00000066        102  (usage 3)
OT_SETCONST                       00000065        101  (usage 3)
READ_OBJ                          00000000          0  (usage 3)
REPORT_EVENT                      00000007          7  (usage 6)
REPORT_OBJ                        00000005          5  (usage 3)
STEELBLUE                         00004416      17430  (usage 48)
Strings0Size                      00000001          1  (usage 3)
Strings0StartH                    00000000          0  (usage 3)
Strings0StartL                    00000A00       2560  (usage 3)
Strings10Size                     00000001          1  (usage 3)
Strings10StartH                   00000000          0  (usage 3)
Strings10StartL                   00001400       5120  (usage 3)
Strings11Size                     00000001          1  (usage 3)
Strings11StartH                   00000000          0  (usage 3)
Strings11StartL                   00003000      12288  (usage 3)
Strings12Size                     00000001          1  (usage 3)
Strings12StartH                   00000000          0  (usage 3)
Strings12StartL                   00001600       5632  (usage 3)
Strings13Size                     00000001          1  (usage 3)
Strings13StartH                   00000000          0  (usage 3)
Strings13StartL                   00001800       6144  (usage 3)
Strings14Size                     00000001          1  (usage 3)
Strings14StartH                   00000000          0  (usage 3)
Strings14StartL                   00001A00       6656  (usage 3)
Strings15Size                     00000001          1  (usage 3)
Strings15StartH                   00000000          0  (usage 3)
Strings15StartL                   00001C00       7168  (usage 3)
Strings16Size                     00000001          1  (usage 3)
Strings16StartH                   00000000          0  (usage 3)
Strings16StartL                   00001E00       7680  (usage 3)
Strings17Size                     00000001          1  (usage 3)
Strings17StartH                   00000000          0  (usage 3)
Strings17StartL                   00002000       8192  (usage 3)
Strings18Size                     00000001          1  (usage 3)
Strings18StartH                   00000000          0  (usage 3)
Strings18StartL                   00002200       8704  (usage 3)
Strings19Size                     00000001          1  (usage 3)
Strings19StartH                   00000000          0  (usage 3)
Strings19StartL                   00002400       9216  (usage 3)
Strings1Size                      00000001          1  (usage 3)
Strings1StartH                    00000000          0  (usage 3)
Strings1StartL                    00000400       1024  (usage 3)
Strings20Size                     00000001          1  (usage 3)
Strings20StartH                   00000000          0  (usage 3)
Strings20StartL                   00002600       9728  (usage 3)
Strings21Size                     00000001          1  (usage 3)
Strings21StartH                   00000000          0  (usage 3)
Strings21StartL                   00002800      10240  (usage 3)
Strings22Size                     00000001          1  (usage 3)
Strings22StartH                   00000000          0  (usage 3)
Strings22StartL                   00002A00      10752  (usage 3)
Strings23Size                     00000001          1  (usage 3)
Strings23StartH                   00000000          0  (usage 3)
Strings23StartL                   00002C00      11264  (usage 3)
Strings24Size                     00000001          1  (usage 3)
Strings24StartH                   00000000          0  (usage 3)
Strings24StartL                   00002E00      11776  (usage 3)
Strings25Size                     00000001          1  (usage 3)
Strings25StartH                   00000000          0  (usage 3)
Strings25StartL                   00000C00       3072  (usage 3)
Strings26Size                     00000001          1  (usage 3)
Strings26StartH                   00000000          0  (usage 3)
Strings26StartL                   00000E00       3584  (usage 3)
Strings27Size                     00000001          1  (usage 3)
Strings27StartH                   00000000          0  (usage 3)
Strings27StartL                   00003A00      14848  (usage 3)
Strings28Size                     00000001          1  (usage 3)
Strings28StartH                   00000000          0  (usage 3)
Strings28StartL                   00003C00      15360  (usage 3)
Strings29Size                     00000001          1  (usage 3)
Strings29StartH                   00000000          0  (usage 3)
Strings29StartL                   00003E00      15872  (usage 3)
Strings2Size                      00000001          1  (usage 3)
Strings2StartH                    00000000          0  (usage 3)
Strings2StartL                    00000600       1536  (usage 3)
Strings30Size                     00000001          1  (usage 3)
Strings30StartH                   00000000          0  (usage 3)
Strings30StartL                   00005200      20992  (usage 3)
Strings31Size                     00000001          1  (usage 3)
Strings31StartH                   00000000          0  (usage 3)
Strings31StartL                   00004000      16384  (usage 3)
Strings32Size                     00000001          1  (usage 3)
Strings32StartH                   00000000          0  (usage 3)
Strings32StartL                   00000000          0  (usage 3)
Strings33Size                     00000001          1  (usage 3)
Strings33StartH                   00000000          0  (usage 3)
Strings33StartL                   00004400      17408  (usage 3)
Strings34Size                     00000001          1  (usage 3)
Strings34StartH                   00000000          0  (usage 3)
Strings34StartL                   00004600      17920  (usage 3)
Strings35Size                     00000001          1  (usage 3)
Strings35StartH                   00000000          0  (usage 3)
Strings35StartL                   00004800      18432  (usage 3)
Strings36Size                     00000001          1  (usage 3)
Strings36StartH                   00000000          0  (usage 3)
Strings36StartL                   00004A00      18944  (usage 3)
Strings3Size                      00000001          1  (usage 3)
Strings3StartH                    00000000          0  (usage 3)
Strings3StartL                    00000800       2048  (usage 3)
Strings4Size                      00000001          1  (usage 3)
Strings4StartH                    00000000          0  (usage 3)
Strings4StartL                    00001200       4608  (usage 3)
Strings53Size                     00000001          1  (usage 3)
Strings53StartH                   00000000          0  (usage 3)
Strings53StartL                   00003200      12800  (usage 3)
Strings55Size                     00000001          1  (usage 3)
Strings55StartH                   00000000          0  (usage 3)
Strings55StartL                   00000200        512  (usage 3)
Strings57Size                     00000001          1  (usage 3)
Strings57StartH                   00000000          0  (usage 3)
Strings57StartL                   00001000       4096  (usage 3)
Strings58Size                     00000001          1  (usage 3)
Strings58StartH                   00000000          0  (usage 3)
Strings58StartL                   00004E00      19968  (usage 3)
Strings5Size                      00000001          1  (usage 3)
Strings5StartH                    00000000          0  (usage 3)
Strings5StartL                    00003400      13312  (usage 3)
Strings62Size                     00000001          1  (usage 3)
Strings62StartH                   00000000          0  (usage 3)
Strings62StartL                   00005000      20480  (usage 3)
Strings66Size                     00000001          1  (usage 3)
Strings66StartH                   00000000          0  (usage 3)
Strings66StartL                   00005400      21504  (usage 3)
Strings67Size                     00000001          1  (usage 3)
Strings67StartH                   00000000          0  (usage 3)
Strings67StartL                   00005600      22016  (usage 3)
Strings68Size                     00000001          1  (usage 3)
Strings68StartH                   00000000          0  (usage 3)
Strings68StartL                   00005800      22528  (usage 3)
Strings69Size                     00000001          1  (usage 3)
Strings69StartH                   00000000          0  (usage 3)
Strings69StartL                   00005A00      23040  (usage 3)
Strings6Size                      00000001          1  (usage 3)
Strings6StartH                    00000000          0  (usage 3)
Strings6StartL                    00003600      13824  (usage 3)
Strings7Size                      00000001          1  (usage 3)
Strings7StartH                    00000000          0  (usage 3)
Strings7StartL                    00004C00      19456  (usage 3)
Strings8Size                      00000001          1  (usage 3)
Strings8StartH                    00000000          0  (usage 3)
Strings8StartL                    00003800      14336  (usage 3)
Strings9Size                      00000001          1  (usage 3)
Strings9StartH                    00000000          0  (usage 3)
Strings9StartL                    00004200      16896  (usage 3)
t4Dbutton                         0000001E         30  (usage 36)
tAngularmeter                     00000007          7  (usage 3)
tAniButton                        0000001F         31  (usage 6)
tColorPicker                      00000020         32  (usage 3)
tCoolgauge                        00000008          8  (usage 3)
tCustomdigits                     00000009          9  (usage 6)
tDipSwitch                        00000000          0  (usage 6)
tForm                             0000000A         10  (usage 15)
tGauge                            0000000B         11  (usage 3)
tGSlider                          00000004          4  (usage 3)
tImage                            0000000C         12  (usage 3)
tKeyboard                         0000000D         13  (usage 6)
tKnob                             00000001          1  (usage 3)
tLed                              0000000E         14  (usage 3)
tLeddigits                        0000000F         15  (usage 12)
tMeter                            00000010         16  (usage 3)
TOUCH_ENABLE                      00000000          0  (usage 3)
TOUCH_GETX                        00000001          1  (usage 3)
TOUCH_GETY                        00000002          2  (usage 3)
TOUCH_MOVING                      00000003          3  (usage 3)
TOUCH_PRESSED                     00000001          1  (usage 12)
TOUCH_RELEASED                    00000002          2  (usage 21)
TOUCH_STATUS                      00000000          0  (usage 3)
tPinInput                         0000001D         29  (usage 6)
tPinOutput                        0000001C         28  (usage 6)
TRANSPARENT                       00000000          0  (usage 3)
tRockerSwitch                     00000002          2  (usage 3)
tRotarySwitch                     00000003          3  (usage 3)
tSounds                           00000016         22  (usage 6)
tSpectrum                         00000018         24  (usage 3)
tStaticText                       00000015         21  (usage 3)
tStrings                          00000011         17  (usage 18)
tTank                             0000001A         26  (usage 3)
tThermometer                      00000012         18  (usage 3)
tTimer                            00000017         23  (usage 6)
tTrackbar                         00000005          5  (usage 3)
tUserButton                       00000021         33  (usage 9)
tUserImages                       0000001B         27  (usage 3)
tUserled                          00000013         19  (usage 3)
tVideo                            00000014         20  (usage 3)
tWinButton                        00000006          6  (usage 171)
WHITE                             0000FFFF      65535  (usage 138)
WRITE_CONTRAST                    00000004          4  (usage 3)
WRITE_OBJ                         00000001          1  (usage 3)
WRITE_STR                         00000002          2  (usage 6)
WRITE_STRU                        00000003          3  (usage 6)

[PmmC FUNCTIONS]
com_Count                         FFFFFF08        -248  args=0 r=1  (usage 3)
com_Init                          FFFFFF18        -232  args=3 r=0  (usage 3)
com_SetBaud                       FFFFFF1F        -225  args=2 r=1  (usage 3)
com_TXbuffer                      FFFFFEF8        -264  args=3 r=0  (usage 3)
file_GetC                         FFFFFE47        -441  args=1 r=1  (usage 3)
file_GetW                         FFFFFE45        -443  args=1 r=1  (usage 3)
file_LoadImageControl             FFFFFE3D        -451  args=3 r=1  (usage 24)
file_Mount                        FFFFFE3C        -452  args=0 r=1  (usage 6)
file_Open                         FFFFFE52        -430  args=2 r=1  (usage 3)
file_Seek                         FFFFFE4F        -433  args=3 r=1  (usage 3)
gfx_Clipping                      FFFFFF46        -186  args=1 r=1  (usage 12)
gfx_ClipWindow                    FFFFFF6A        -150  args=4 r=0  (usage 6)
gfx_Cls                           FFFFFF82        -126  args=0 r=0  (usage 6)
gfx_Contrast                      FFFFFF40        -192  args=1 r=1  (usage 3)
gfx_MoveTo                        FFFFFF81        -127  args=2 r=0  (usage 3)
gfx_RectangleFilled               FFFFFF79        -135  args=5 r=0  (usage 9)
gfx_ScreenMode                    FFFFFF42        -190  args=1 r=1  (usage 3)
gfx_Set                           FFFFFF83        -125  args=2 r=0  (usage 3)
img_ClearAttributes               FFFFFE81        -383  args=3 r=1  (usage 6)
img_Disable                       FFFFFE88        -376  args=2 r=1  (usage 6)
img_GetWord                       FFFFFE84        -380  args=3 r=1  (usage 90)
img_SetAttributes                 FFFFFE82        -382  args=3 r=1  (usage 9)
img_SetWord                       FFFFFE85        -379  args=4 r=1  (usage 33)
img_Show                          FFFFFE83        -381  args=2 r=1  (usage 27)
img_Touched                       FFFFFE80        -384  args=2 r=1  (usage 3)
OVF                               FFFFFFC1         -63  args=0 r=1  (usage 3)
pause                             FFFFFFFA          -6  args=1 r=0  (usage 6)
putch                             FFFFFFFE          -2  args=1 r=0  (usage 6)
putnum                            FFFFFFF9          -7  args=2 r=1  (usage 3)
putstr                            FFFFFFF7          -9  args=1 r=1  (usage 6)
serin                             FFFFFF14        -236  args=0 r=1  (usage 3)
serout                            FFFFFF10        -240  args=1 r=0  (usage 21)
str_GetByte                       FFFFFE25        -475  args=1 r=1  (usage 3)
str_Ptr                           FFFFFE2A        -470  args=1 r=1  (usage 3)
sys_EventsResume                  FFFFFE72        -398  args=0 r=0  (usage 3)
to                                FFFFFFFF          -1  args=1 r=0  (usage 3)
touch_Get                         FFFFFE68        -408  args=1 r=1  (usage 9)
touch_Set                         FFFFFE69        -407  args=1 r=0  (usage 3)
txt_Attributes                    FFFFFFE1         -31  args=1 r=1  (usage 3)
txt_BGcolour                      FFFFFFED         -19  args=1 r=1  (usage 3)
txt_FGcolour                      FFFFFFEE         -18  args=1 r=1  (usage 3)
txt_FontID                        FFFFFFEC         -20  args=1 r=1  (usage 3)
txt_Opacity                       FFFFFFE6         -26  args=1 r=1  (usage 3)
uadd_3232                         FFFFFFB9         -71  args=3 r=1  (usage 3)
umul_1616                         FFFFFFB7         -73  args=3 r=1  (usage 3)

[USER FUNCTIONS]
ActivateForm                      000020EA  args=1 r=0  (usage 9)
DoGFXObjects                      00001E72  args=0 r=0  (usage 6)
kbDown                            000028A9  args=4 r=0  (usage 3)
kbUp                              00002802  args=2 r=0  (usage 3)
ledDigitsDisplay                  00002256  args=3 r=0  (usage 6)
nak0                              000027DF  args=0 r=0  (usage 24)
PrintStrings                      00002B7C  args=3 r=0  (usage 9)
ReadObject                        000026E2  args=2 r=0  (usage 3)
refreshstate                      00002AB2  args=2 r=0  (usage 9)
SendReport                        0000279C  args=4 r=0  (usage 9)
seroutCS                          000027EF  args=1 r=0  (usage 15)
seroutOcs                         000027CE  args=0 r=0  (usage 3)
setkeystate                       00002890  args=2 r=0  (usage 33)
TurnOffButtons                    0000237E  args=1 r=0  (usage 6)
UpdateObjects                     00001E73  args=1 r=0  (usage 6)
WriteObject                       0000245C  args=3 r=0  (usage 24)

[GLOBAL VARIABLES]
ActiveKeyboard                       156  word       (usage 36)
cmd                                  240  word[80]   (usage 84)
comRX                                200  word[40]   (usage 3)
CurInputData                         198  word       (usage 51)
CurrentForm                          191  word       (usage 51)
dKeyboard                            155  word[1]   (usage 15)
hFonts                                14  word[70]   (usage 258)
hndl                                   1  word       (usage 177)
hstrings                             154  word       (usage 12)
ImageTouched                         193  word       (usage 57)
InputCS                              320  word       (usage 21)
InputType                            196  word       (usage 24)
oKeyboard0                             2  word[12]   (usage 3)
oldn                                 192  word       (usage 42)
oObjects                             157  word[34]   (usage 108)
OutputCS                             321  word       (usage 9)
pInputIndex                          199  word       (usage 21)
stringsCV                             84  word[70]   (usage 27)
TouchState                           197  word       (usage 24)
TouchXpos                            194  word       (usage 15)
TouchYpos                            195  word       (usage 12)

[PRIVATE VARIABLES]

[DATA]
0007: 07 08 09 04 05 06 01 02 03 0A 00 0B 0C 0D FF FF     ..............€€
0017: 00 00 00 00 00 00 00 00 FF 00 FF 00 FF 00 FF 00     ........€.€.€.€.
0027: FF 00 0E 00 00 00 00 00 00 00 00 00 0A 00 26 00     €.............&.
0037: 42 00 52 00 00 00 68 00 00 00 00 00 00 00 74 00     B.R...h.......t.
0047: 00 00 82 00 00 00 00 00 88 00 00 00 91 00 0A 00     ..В.....И...С...
0057: 00 00 00 00 26 00 42 00 52 00 68 00 00 00 74 00     ....&.B.R.h...t.
0067: 00 00 00 00 00 00 82 00 00 00 88 00 00 00 00 00     ......В...И.....
0077: 91 00 00 00 A5 00 00 00 FF FF FF FF FF FF FF FF     С...•...€€€€€€€€
0087: 2C 00 58 00 84 00 FF FF B0 00 FF FF FF FF FF FF     ,.X.Д.€€∞.€€€€€€
0097: FF FF FF FF FF FF FF FF FF FF FF FF FF FF FF FF     €€€€€€€€€€€€€€€€
00A7: DC 00 08 01 FF FF FF FF FF FF FF FF FF FF 34 01     №...€€€€€€€€€€4.
00B7: 60 01 FF FF FF FF FF FF FF FF FF FF FF FF FF FF     `.€€€€€€€€€€€€€€
00C7: FF FF FF FF FF FF FF FF FF FF FF FF FF FF FF FF     €€€€€€€€€€€€€€€€
00D7: FF FF FF FF 8C 01 B8 01 E4 01 10 02 3C 02 68 02     €€€€М.Є.д...<.h.
00E7: 94 02 C0 02 FF FF FF FF EC 02 FF FF FF FF FF FF     Ф.ј.€€€€м.€€€€€€
00F7: FF FF FF FF FF FF 18 03 44 03 70 03 FF FF FF FF     €€€€€€..D.p.€€€€
0107: FF FF FF FF FF FF FF FF FF FF FF FF FF FF FF FF     €€€€€€€€€€€€€€€€
0117: FF FF FF FF FF FF FF FF FF FF 70 03 FF FF 9C 03     €€€€€€€€€€p.€€Ь.
0127: FF FF FF FF FF FF FF FF FF FF FF FF FF FF C8 03     €€€€€€€€€€€€€€».
0137: F4 03 FF FF FF FF 20 04 4C 04 78 04 A4 04 FF FF     ф.€€€€ .L.x.§.€€
0147: FF FF D0 04 FC 04 28 05 FF FF FF FF 54 05 80 05     €€–.ь.(.€€€€T.А.
0157: FF FF AC 05 FF FF D8 05 FF FF FF FF 04 06 30 06     €€ђ.€€Ў.€€€€..0.
0167: FF FF FF FF 5C 06 88 06 B4 06 E0 06 0C 07 38 07     €€€€\.И.і.а...8.
0177: FF FF FF FF FF FF FF FF FF FF 64 07 90 07 BC 07     €€€€€€€€€€d.Р.Љ.
0187: E8 07 FF FF FF FF 14 08 40 08 FF FF FF FF 6C 08     и.€€€€..@.€€€€l.
0197: FF FF 98 08 C4 08 FF FF FF FF F0 08 1C 09 FF FF     €€Ш.ƒ.€€€€р...€€
01A7: FF FF FF FF FF FF FF FF 48 09 FF FF FF FF FF FF     €€€€€€€€H.€€€€€€
01B7: FF FF FF FF FF FF FF FF 74 09 A0 09 06 00 01 00     €€€€€€€€t.†.....
01C7: FF FF FF FF FF FF FF FF FF FF FF FF 00 00 16 00     €€€€€€€€€€€€....
01D7: 3C 00 64 00 00 00 00 00 00 00 00 00 00 00 00 00     <.d.............
01E7: 00 00 00 00 00 00 1D 00 06 00 01 00 FF FF FF FF     ............€€€€
01F7: FF FF FF FF FF FF FF FF 00 00 42 00 50 00 64 00     €€€€€€€€..B.P.d.
0207: 00 00 00 00 00 00 00 00 00 00 00 00 00 00 00 00     ................
0217: 00 00 27 00 06 00 01 00 FF FF FF FF FF FF FF FF     ..'.....€€€€€€€€
0227: FF FF FF FF 00 00 6E 00 6E 00 64 00 00 00 00 00     €€€€..n.n.d.....
0237: 00 00 00 00 00 00 00 00 00 00 00 00 00 00 36 00     ..............6.
0247: 06 00 01 00 FF FF FF FF FF FF FF FF FF FF FF FF     ....€€€€€€€€€€€€
0257: 00 00 9A 00 70 00 64 00 00 00 00 00 00 00 00 00     ..Ъ.p.d.........
0267: 00 00 00 00 00 00 00 00 00 00 37 00 06 00 01 00     ..........7.....
0277: FF FF FF FF FF FF FF FF FF FF FF FF 00 00 C6 00     €€€€€€€€€€€€..∆.
0287: 72 00 64 00 00 00 00 00 00 00 00 00 00 00 00 00     r.d.............
0297: 00 00 00 00 00 00 38 00 06 00 01 00 FF FF FF FF     ......8.....€€€€
02A7: FF FF FF FF FF FF FF FF 00 00 F2 00 10 00 64 00     €€€€€€€€..т...d.
02B7: 00 00 00 00 00 00 00 00 00 00 00 00 00 00 00 00     ................
02C7: 00 00 07 00 1E 00 00 00 01 00 FF FF FF FF FF FF     ..........€€€€€€
02D7: FF FF FF FF 00 00 1E 01 06 00 64 00 00 00 00 00     €€€€......d.....
02E7: 00 00 00 00 00 00 00 00 00 00 00 00 00 00 02 00     ................
02F7: 1E 00 00 00 01 00 FF FF FF FF FF FF FF FF FF FF     ......€€€€€€€€€€
0307: 00 00 4A 01 04 00 64 00 00 00 00 00 00 00 00 00     ..J...d.........
0317: 00 00 00 00 00 00 00 00 00 00 01 00 1E 00 00 00     ................
0327: 01 00 FF FF FF FF FF FF FF FF FF FF 00 00 76 01     ..€€€€€€€€€€..v.
0337: 0A 00 64 00 00 00 00 00 00 00 00 00 00 00 00 00     ..d.............
0347: 00 00 00 00 00 00 04 00 06 00 01 00 FF FF FF FF     ............€€€€
0357: FF FF FF FF FF FF FF FF 00 00 A2 01 12 00 64 00     €€€€€€€€..Ґ...d.
0367: 00 00 00 00 00 00 00 00 00 00 00 00 00 00 00 00     ................
0377: 00 00 08 00 06 00 01 00 FF FF FF FF FF FF FF FF     ........€€€€€€€€
0387: FF FF FF FF 00 00 CE 01 14 00 64 00 00 00 00 00     €€€€..ќ...d.....
0397: 00 00 00 00 00 00 00 00 00 00 00 00 00 00 09 00     ................
03A7: 06 00 01 00 FF FF FF FF FF FF FF FF FF FF FF FF     ....€€€€€€€€€€€€
03B7: 00 00 FA 01 16 00 64 00 00 00 00 00 00 00 00 00     ..ъ...d.........
03C7: 00 00 00 00 00 00 00 00 00 00 0A 00 06 00 01 00     ................
03D7: FF FF FF FF FF FF FF FF FF FF FF FF 00 00 26 02     €€€€€€€€€€€€..&.
03E7: 18 00 64 00 00 00 00 00 00 00 00 00 00 00 00 00     ..d.............
03F7: 00 00 00 00 00 00 0B 00 06 00 01 00 FF FF FF FF     ............€€€€
0407: FF FF FF FF FF FF FF FF 00 00 52 02 1A 00 64 00     €€€€€€€€..R...d.
0417: 00 00 00 00 00 00 00 00 00 00 00 00 00 00 00 00     ................
0427: 00 00 0C 00 06 00 01 00 FF FF FF FF FF FF FF FF     ........€€€€€€€€
0437: FF FF FF FF 00 00 7E 02 1C 00 64 00 00 00 00 00     €€€€..~...d.....
0447: 00 00 00 00 00 00 00 00 00 00 00 00 00 00 0D 00     ................
0457: 06 00 01 00 FF FF FF FF FF FF FF FF FF FF FF FF     ....€€€€€€€€€€€€
0467: 00 00 AA 02 1E 00 64 00 00 00 00 00 00 00 00 00     ..™...d.........
0477: 00 00 00 00 00 00 00 00 00 00 0E 00 06 00 01 00     ................
0487: FF FF FF FF FF FF FF FF FF FF FF FF 00 00 D6 02     €€€€€€€€€€€€..÷.
0497: 20 00 64 00 00 00 00 00 00 00 00 00 00 00 00 00      .d.............
04A7: 00 00 00 00 00 00 0F 00 1E 00 00 00 FF FF FF FF     ............€€€€
04B7: FF FF FF FF FF FF FF FF 00 00 02 03 02 00 64 00     €€€€€€€€......d.
04C7: 00 00 00 00 00 00 00 00 00 00 00 00 00 00 00 00     ................
04D7: 00 00 00 00 1E 00 00 00 FF FF FF FF FF FF FF FF     ........€€€€€€€€
04E7: FF FF FF FF 00 00 2E 03 0C 00 64 00 00 00 00 00     €€€€......d.....
04F7: 00 00 00 00 00 00 00 00 00 00 00 00 00 00 05 00     ................
0507: 06 00 01 00 FF FF FF FF FF FF FF FF FF FF FF FF     ....€€€€€€€€€€€€
0517: 00 00 5A 03 2A 00 64 00 00 00 00 00 00 00 00 00     ..Z.*.d.........
0527: 00 00 00 00 00 00 00 00 00 00 14 00 06 00 01 00     ................
0537: FF FF FF FF FF FF FF FF FF FF FF FF 00 00 86 03     €€€€€€€€€€€€..Ж.
0547: 4A 00 64 00 00 00 00 00 00 00 00 00 00 00 00 00     J.d.............
0557: 00 00 00 00 00 00 24 00 00 00 00 00 3C 00 2D 00     ......$.....<.-.
0567: 02 00 FF FF FF FF FF FF 00 00 B2 03 02 00 64 00     ..€€€€€€..≤...d.
0577: 00 00 00 00 00 00 00 00 00 00 00 00 00 00 00 00     ................
0587: 00 00 00 00 06 00 01 00 FF FF FF FF FF FF FF FF     ........€€€€€€€€
0597: FF FF FF FF 00 00 DE 03 04 00 64 00 00 00 00 00     €€€€..ё...d.....
05A7: 00 00 00 00 00 00 00 00 00 00 00 00 00 00 01 00     ................
05B7: 06 00 01 00 FF FF FF FF FF FF FF FF FF FF FF FF     ....€€€€€€€€€€€€
05C7: 00 00 0A 04 06 00 64 00 00 00 00 00 00 00 00 00     ......d.........
05D7: 00 00 00 00 00 00 00 00 00 00 02 00 06 00 01 00     ................
05E7: FF FF FF FF FF FF FF FF FF FF FF FF 00 00 36 04     €€€€€€€€€€€€..6.
05F7: 08 00 64 00 00 00 00 00 00 00 00 00 00 00 00 00     ..d.............
0607: 00 00 00 00 00 00 03 00 06 00 01 00 FF FF FF FF     ............€€€€
0617: FF FF FF FF FF FF FF FF 00 00 62 04 0A 00 64 00     €€€€€€€€..b...d.
0627: 00 00 00 00 00 00 00 00 00 00 00 00 00 00 00 00     ................
0637: 00 00 04 00 06 00 01 00 FF FF FF FF FF FF FF FF     ........€€€€€€€€
0647: FF FF FF FF 00 00 8E 04 0C 00 64 00 00 00 00 00     €€€€..О...d.....
0657: 00 00 00 00 00 00 00 00 00 00 00 00 00 00 05 00     ................
0667: 06 00 01 00 FF FF FF FF FF FF FF FF FF FF FF FF     ....€€€€€€€€€€€€
0677: 00 00 BA 04 22 00 64 00 00 00 00 00 00 00 00 00     ..Ї.".d.........
0687: 00 00 00 00 00 00 00 00 00 00 10 00 06 00 01 00     ................
0697: FF FF FF FF FF FF FF FF FF FF FF FF 00 00 E6 04     €€€€€€€€€€€€..ж.
06A7: 24 00 64 00 00 00 00 00 00 00 00 00 00 00 00 00     $.d.............
06B7: 00 00 00 00 00 00 11 00 06 00 01 00 FF FF FF FF     ............€€€€
06C7: FF FF FF FF FF FF FF FF 00 00 12 05 0E 00 64 00     €€€€€€€€......d.
06D7: 00 00 00 00 00 00 00 00 00 00 00 00 00 00 00 00     ................
06E7: 00 00 06 00 06 00 01 00 FF FF FF FF FF FF FF FF     ........€€€€€€€€
06F7: FF FF FF FF 00 00 3E 05 3E 00 64 00 00 00 00 00     €€€€..>.>.d.....
0707: 00 00 00 00 00 00 00 00 00 00 00 00 00 00 1E 00     ................
0717: 06 00 01 00 FF FF FF FF FF FF FF FF FF FF FF FF     ....€€€€€€€€€€€€
0727: 00 00 6A 05 40 00 64 00 00 00 00 00 00 00 00 00     ..j.@.d.........
0737: 00 00 00 00 00 00 00 00 00 00 1F 00 06 00 01 00     ................
0747: FF FF FF FF FF FF FF FF FF FF FF FF 00 00 96 05     €€€€€€€€€€€€..Ц.
0757: 42 00 64 00 00 00 00 00 00 00 00 00 00 00 00 00     B.d.............
0767: 00 00 00 00 00 00 20 00 06 00 01 00 FF FF FF FF     ...... .....€€€€
0777: FF FF FF FF FF FF FF FF 00 00 C2 05 44 00 64 00     €€€€€€€€..¬.D.d.
0787: 00 00 00 00 00 00 00 00 00 00 00 00 00 00 00 00     ................
0797: 00 00 21 00 06 00 01 00 FF FF FF FF FF FF FF FF     ..!.....€€€€€€€€
07A7: FF FF FF FF 00 00 EE 05 46 00 64 00 00 00 00 00     €€€€..о.F.d.....
07B7: 00 00 00 00 00 00 00 00 00 00 00 00 00 00 22 00     ..............".
07C7: 06 00 01 00 FF FF FF FF FF FF FF FF FF FF FF FF     ....€€€€€€€€€€€€
07D7: 00 00 1A 06 48 00 64 00 00 00 00 00 00 00 00 00     ....H.d.........
07E7: 00 00 00 00 00 00 00 00 00 00 23 00 06 00 01 00     ..........#.....
07F7: FF FF FF FF FF FF FF FF FF FF FF FF 00 00 46 06     €€€€€€€€€€€€..F.
0807: 2E 00 64 00 00 00 00 00 00 00 00 00 00 00 00 00     ..d.............
0817: 00 00 00 00 00 00 16 00 06 00 01 00 FF FF FF FF     ............€€€€
0827: FF FF FF FF FF FF FF FF 00 00 72 06 30 00 64 00     €€€€€€€€..r.0.d.
0837: 00 00 00 00 00 00 00 00 00 00 00 00 00 00 00 00     ................
0847: 00 00 17 00 06 00 01 00 FF FF FF FF FF FF FF FF     ........€€€€€€€€
0857: FF FF FF FF 00 00 9E 06 32 00 64 00 00 00 00 00     €€€€..Ю.2.d.....
0867: 00 00 00 00 00 00 00 00 00 00 00 00 00 00 18 00     ................
0877: 06 00 01 00 FF FF FF FF FF FF FF FF FF FF FF FF     ....€€€€€€€€€€€€
0887: 00 00 CA 06 34 00 64 00 00 00 00 00 00 00 00 00     .. .4.d.........
0897: 00 00 00 00 00 00 00 00 00 00 19 00 06 00 01 00     ................
08A7: FF FF FF FF FF FF FF FF FF FF FF FF 00 00 F6 06     €€€€€€€€€€€€..ц.
08B7: 36 00 64 00 00 00 00 00 00 00 00 00 00 00 00 00     6.d.............
08C7: 00 00 00 00 00 00 1A 00 06 00 01 00 FF FF FF FF     ............€€€€
08D7: FF FF FF FF FF FF FF FF 00 00 22 07 38 00 64 00     €€€€€€€€..".8.d.
08E7: 00 00 00 00 00 00 00 00 00 00 00 00 00 00 00 00     ................
08F7: 00 00 1B 00 06 00 01 00 FF FF FF FF FF FF FF FF     ........€€€€€€€€
0907: FF FF FF FF 00 00 4E 07 3A 00 64 00 00 00 00 00     €€€€..N.:.d.....
0917: 00 00 00 00 00 00 00 00 00 00 00 00 00 00 1C 00     ................
0927: 06 00 01 00 FF FF FF FF FF FF FF FF FF FF FF FF     ....€€€€€€€€€€€€
0937: 00 00 7A 07 78 00 64 00 00 00 00 00 00 00 00 00     ..z.x.d.........
0947: 00 00 00 00 00 00 00 00 00 00 3B 00 06 00 01 00     ..........;.....
0957: FF FF FF FF FF FF FF FF FF FF FF FF 00 00 A6 07     €€€€€€€€€€€€..¶.
0967: 7A 00 64 00 00 00 00 00 00 00 00 00 00 00 00 00     z.d.............
0977: 00 00 00 00 00 00 3C 00 06 00 01 00 FF FF FF FF     ......<.....€€€€
0987: FF FF FF FF FF FF FF FF 00 00 D2 07 84 00 64 00     €€€€€€€€..“.Д.d.
0997: 00 00 00 00 00 00 00 00 00 00 00 00 00 00 00 00     ................
09A7: 00 00 41 00 06 00 01 00 FF FF FF FF FF FF FF FF     ..A.....€€€€€€€€
09B7: FF FF FF FF 00 00 FE 07 88 00 64 00 00 00 00 00     €€€€..ю.И.d.....
09C7: 00 00 00 00 00 00 00 00 00 00 00 00 00 00 43 00     ..............C.
09D7: 06 00 01 00 FF FF FF FF FF FF FF FF FF FF FF FF     ....€€€€€€€€€€€€
09E7: 00 00 2A 08 92 00 64 00 00 00 00 00 00 00 00 00     ..*.Т.d.........
09F7: 00 00 00 00 00 00 00 00 00 00 48 00 06 00 01 00     ..........H.....
0A07: FF FF FF FF FF FF FF FF FF FF FF FF 00 00 56 08     €€€€€€€€€€€€..V.
0A17: 9C 00 64 00 00 00 00 00 00 00 00 00 00 00 00 00     Ь.d.............
0A27: 00 00 00 00 00 00 4D 00 06 00 01 00 FF FF FF FF     ......M.....€€€€
0A37: FF FF FF FF FF FF FF FF 00 00 82 08 A2 00 64 00     €€€€€€€€..В.Ґ.d.
0A47: 00 00 00 00 00 00 00 00 00 00 00 00 00 00 00 00     ................
0A57: 00 00 50 00 06 00 01 00 FF FF FF FF FF FF FF FF     ..P.....€€€€€€€€
0A67: FF FF FF FF 00 00 AE 08 B4 00 64 00 00 00 00 00     €€€€..Ѓ.і.d.....
0A77: 00 00 00 00 00 00 00 00 00 00 00 00 00 00 59 00     ..............Y.
0A87: 06 00 01 00 FF FF FF FF FF FF FF FF FF FF FF FF     ....€€€€€€€€€€€€
0A97: 00 00 DA 08 02 00 64 00 00 00 00 00 00 00 00 00     ..Џ...d.........
0AA7: 00 00 00 00 00 00 00 00 00 00 00 00 06 00 01 00     ................
0AB7: FF FF FF FF FF FF FF FF FF FF FF FF 00 00 06 09     €€€€€€€€€€€€....
0AC7: AE 00 64 00 00 00 00 00 00 00 00 00 00 00 00 00     Ѓ.d.............
0AD7: 00 00 00 00 00 00 56 00 06 00 01 00 FF FF FF FF     ......V.....€€€€
0AE7: FF FF FF FF FF FF FF FF 00 00 32 09 B0 00 64 00     €€€€€€€€..2.∞.d.
0AF7: 00 00 00 00 00 00 00 00 00 00 00 00 00 00 00 00     ................
0B07: 00 00 57 00 06 00 01 00 FF FF FF FF FF FF FF FF     ..W.....€€€€€€€€
0B17: FF FF FF FF 00 00 5E 09 B2 00 64 00 00 00 00 00     €€€€..^.≤.d.....
0B27: 00 00 00 00 00 00 00 00 00 00 00 00 00 00 58 00     ..............X.
0B37: 06 00 01 00 FF FF FF FF FF FF FF FF FF FF FF FF     ....€€€€€€€€€€€€
0B47: 00 00 8A 09 B8 00 64 00 00 00 00 00 00 00 00 00     ..К.Є.d.........
0B57: 00 00 00 00 00 00 00 00 00 00 5B 00 06 00 01 00     ..........[.....
0B67: FF FF FF FF FF FF FF FF FF FF FF FF 00 00 B6 09     €€€€€€€€€€€€..ґ.
0B77: BA 00 64 00 00 00 00 00 00 00 00 00 00 00 00 00     Ї.d.............
0B87: 00 00 00 00 00 00 5C 00 00 00 00 0A 01 00 CA 02     ......\....... .
0B97: 9E 00 05 03 B4 00 FF FF 16 44 00 00 01 00 01 00     Ю...і.€€.D......
0BA7: 03 00 00 00 00 04 01 00 CA 02 D6 00 05 03 EC 00     ........ .÷...м.
0BB7: FF FF 16 44 00 00 01 00 01 00 03 00 00 00 00 06     €€.D............
0BC7: 01 00 CA 02 BA 00 05 03 D0 00 FF FF 16 44 00 00     .. .Ї...–.€€.D..
0BD7: 01 00 01 00 03 00 00 00 00 08 01 00 CA 02 F6 00     ............ .ц.
0BE7: 05 03 0C 01 FF FF 16 44 00 00 01 00 01 00 03 00     ....€€.D........
0BF7: 00 00 00 12 01 00 5C 00 98 01 2B 02 D4 01 FF FF     ......\.Ш.+.‘.€€
0C07: 16 44 00 00 01 00 01 00 03 00 00 00 00 34 01 00     .D...........4..
0C17: 14 02 00 01 7B 02 25 01 FF FF 16 44 00 00 01 00     ....{.%.€€.D....
0C27: 01 00 06 00 00 00 00 36 01 00 CD 00 00 01 34 01     .......6..Ќ...4.
0C37: 25 01 FF FF 16 44 00 00 01 00 01 00 06 00 00 00     %.€€.D..........
0C47: 00 4C 01 00 64 00 94 00 D3 02 BD 00 FF FF 16 44     .L..d.Ф.”.љ.€€.D
0C57: 00 00 01 00 01 00 0C 00 00 00 00 38 01 00 CD 00     ...........8..Ќ.
0C67: 2C 01 34 01 53 01 FF FF 16 44 00 00 01 00 01 00     ,.4.S.€€.D......
0C77: 06 00 00 00 00 42 01 00 60 01 4C 00 DC 01 6E 00     .....B..`.L.№.n.
0C87: FF FF 00 00 00 00 01 00 01 00 08 00 00 00 00 14     €€..............
0C97: 01 00 74 00 8C 00 09 01 A9 00 FF FF 00 00 00 00     ..t.М...©.€€....
0CA7: 01 00 01 00 04 00 00 00 00 30 01 00 CC 00 58 00     .........0..ћ.X.
0CB7: 72 02 7F 00 FF FF 00 00 00 00 01 00 01 00 05 00     r..€€..........
0CC7: 00 00 00 16 01 00 CA 01 97 00 5F 02 B4 00 FF FF     ...... .Ч._.і.€€
0CD7: 00 00 00 00 01 00 01 00 04 00 00 00 00 18 01 00     ................
0CE7: 74 00 CB 00 09 01 E8 00 FF FF 00 00 00 00 01 00     t.Ћ...и.€€......
0CF7: 01 00 04 00 00 00 00 1A 01 00 74 00 F9 00 09 01     ..........t.щ...
0D07: 16 01 FF FF 00 00 00 00 01 00 01 00 04 00 00 00     ..€€............
0D17: 00 1C 01 00 74 00 27 01 09 01 44 01 FF FF 00 00     ....t.'...D.€€..
0D27: 00 00 01 00 01 00 04 00 00 00 00 1E 01 00 74 00     ..............t.
0D37: 56 01 09 01 73 01 FF FF 00 00 00 00 01 00 01 00     V...s.€€........
0D47: 04 00 00 00 00 20 01 00 CE 01 C5 00 63 02 E2 00     ..... ..ќ.≈.c.в.
0D57: FF FF 00 00 00 00 01 00 01 00 04 00 00 00 00 22     €€............."
0D67: 01 00 CE 01 F3 00 63 02 10 01 FF FF 00 00 00 00     ..ќ.у.c...€€....
0D77: 01 00 01 00 04 00 00 00 00 24 01 00 CE 01 21 01     .........$..ќ.!.
0D87: 63 02 3E 01 FF FF 00 00 00 00 01 00 01 00 04 00     c.>.€€..........
0D97: 00 00 00 26 01 00 CE 01 58 01 63 02 75 01 FF FF     ...&..ќ.X.c.u.€€
0DA7: 00 00 00 00 01 00 01 00 04 00 00 00 00 28 01 00     .............(..
0DB7: 74 00 84 01 09 01 A1 01 FF FF 00 00 00 00 01 00     t.Д...°.€€......
0DC7: 01 00 04 00 00 00 00 2A 01 00 78 00 AC 01 0D 01     .......*..x.ђ...
0DD7: C9 01 FF FF 00 00 00 00 01 00 01 00 04 00 00 00     ….€€............
0DE7: 00 2C 01 00 CE 01 8C 01 5D 02 A5 01 FF FF 00 00     .,..ќ.М.].•.€€..
0DF7: 00 00 01 00 01 00 04 00 00 00 00 2E 01 00 CE 01     ..............ќ.
0E07: B3 01 5C 02 D0 01 FF FF 00 00 00 00 01 00 01 00     ≥.\.–.€€........
0E17: 04 00 00 00 00 0C 01 00 A6 02 7C 01 F4 02 92 01     ........¶.|.ф.Т.
0E27: FF FF 16 44 00 00 01 00 01 00 03 00 00 00 00 0E     €€.D............
0E37: 01 00 A6 02 5C 01 F4 02 72 01 FF FF 16 44 00 00     ..¶.\.ф.r.€€.D..
0E47: 01 00 01 00 03 00 00 00 00 3A 01 00 14 02 29 01     .........:....).
0E57: 7B 02 51 01 FF FF 16 44 00 00 01 00 01 00 06 00     {.Q.€€.D........
0E67: 00 00 00 3C 01 00 14 02 57 01 7B 02 82 01 FF FF     ...<....W.{.В.€€
0E77: 16 44 00 00 01 00 01 00 06 00 00 00 00 3E 01 00     .D...........>..
0E87: CD 00 5C 01 34 01 84 01 FF FF 16 44 00 00 01 00     Ќ.\.4.Д.€€.D....
0E97: 01 00 06 00 00 00 00 52 01 00 74 02 90 01 D6 02     .......R..t.Р.÷.
0EA7: AE 01 FF FF 00 00 00 00 01 00 01 00 11 00 00 00     Ѓ.€€............
0EB7: 00 40 01 00 D2 00 B3 01 39 01 DB 01 FF FF 16 44     .@..“.≥.9.џ.€€.D
0EC7: 00 00 01 00 01 00 06 00 00 00 00 00 01 00 40 01     ..............@.
0ED7: A0 00 53 02 C7 00 FF FF 00 00 00 00 01 00 01 00     †.S.«.€€........
0EE7: 00 00 00 00 00 44 01 00 60 01 B0 00 DC 01 D2 00     .....D..`.∞.№.“.
0EF7: FF FF 00 00 00 00 01 00 01 00 08 00 00 00 00 46     €€.............F
0F07: 01 00 60 01 E8 00 DC 01 0A 01 FF FF 00 00 00 00     ..`.и.№...€€....
0F17: 01 00 01 00 08 00 00 00 00 48 01 00 60 01 7C 00     .........H..`.|.
0F27: DC 01 9E 00 FF FF 00 00 00 00 01 00 01 00 08 00     №.Ю.€€..........
0F37: 00 00 00 4A 01 00 60 01 1C 01 DC 01 3E 01 FF FF     ...J..`...№.>.€€
0F47: 00 00 00 00 01 00 01 00 08 00 00 00 00 32 01 00     .............2..
0F57: CC 00 18 00 82 02 59 00 FF FF 00 00 00 00 01 00     ћ...В.Y.€€......
0F67: 01 00 05 00 00 00 00 02 01 00 40 01 E8 00 4B 02     ..........@.и.K.
0F77: 0F 01 FF FF 00 00 00 00 01 00 01 00 00 00 00 00     ..€€............
0F87: 00 10 01 00 60 00 48 00 FF 02 74 00 FF FF 16 44     ....`.H.€.t.€€.D
0F97: 00 00 01 00 01 00 03 00 00 00 00 4E 01 00 00 00     ...........N....
0FA7: BA 01 D3 00 DF 01 00 00 FF FF 00 00 01 00 01 00     Ї.”.я...€€......
0FB7: 0E 00 00 00 00 50 01 00 54 00 C7 01 27 01 DF 01     .....P..T.«.'.я.
0FC7: FF FF 00 00 00 00 01 00 01 00 11 00 00 00 00 54     €€.............T
0FD7: 01 00 5D 01 B8 00 79 01 CE 00 FF FF 00 00 00 00     ..].Є.y.ќ.€€....
0FE7: 01 00 01 00 13 00 00 00 00 56 01 00 52 01 F4 00     .........V..R.ф.
0FF7: 78 01 11 01 FF FF 00 00 00 00 01 00 01 00 13 00     x...€€..........
1007: 00 00 00 58 01 00 44 01 80 00 D8 01 9B 00 FF FF     ...X..D.А.Ў.Ы.€€
1017: 00 00 00 00 01 00 01 00 13 00 00 00 00 5A 01 00     .............Z..
1027: 50 02 80 00 DD 02 9E 00 FF FF 00 00 00 00 01 00     P.А.Ё.Ю.€€......
1037: 01 00 13 00 01 00 54 00 00 00 00 00 00 00 00 00     ......T.........
1047: 00 00 5D 00 8F 00 5C 00 5D 00 60 00 61 00 62 00     ..].П.\.].`.a.b.
1057: 67 00 15 00 2F 00 30 00 31 00 32 00 33 00 34 00     g.../.0.1.2.3.4.
1067: 35 00 36 00 63 00 66 00 FF FF FF FF 41 00 FF FF     5.6.c.f.€€€€A.€€
1077: 74 00 77 00 78 00 79 00 7A 00 7B 00 7C 00 00 00     t.w.x.y.z.{.|...
1087: 68 00 6B 00 6C 00 6E 00 70 00 73 00 52 00 FF FF     h.k.l.n.p.s.R.€€
1097: FF FF 05 00 FF FF FF FF FF FF FF FF FF FF FF FF     €€..€€€€€€€€€€€€
10A7: FF FF FF FF FF FF FF FF FF FF FF FF FF FF FF FF     €€€€€€€€€€€€€€€€
10B7: 06 00 07 00 09 00 FF FF FF FF 82 00 83 00 FF FF     ......€€€€В.Г.€€
10C7: FF FF FF FF FF FF 84 00 FF FF 85 00 FF FF FF FF     €€€€€€Д.€€Е.€€€€
10D7: FF FF FF FF 88 00 FF FF FF FF FF FF FF FF 89 00     €€€€И.€€€€€€€€Й.
10E7: FF FF FF FF 8C 00 FF FF FF FF FF FF FF FF FF FF     €€€€М.€€€€€€€€€€
10F7: 92 00 93 00 99 00 8E 00 FF FF A1 00 A2 00 00 00     Т.У.Щ.О.€€°.Ґ...
1107: 00 00 00 00 14 00 FF FF FF FF FF FF FF FF FF FF     ......€€€€€€€€€€
1117: FF FF FF FF FF FF FF FF FF FF FF FF FF FF FF FF     €€€€€€€€€€€€€€€€
1127: FF FF FF FF FF FF FF FF FF FF FF FF FF FF 00 00     €€€€€€€€€€€€€€..
1137: 03 00 FF FF FF FF 86 00 01 00 42 00 07 00 FF FF     ..€€€€Ж...B...€€
1147: FF FF 9A 00 9B 00 9E 00 FF FF 9F 00 04 00 7E 00     €€Ъ.Ы.Ю.€€Я...~.
1157: 80 00 21 00 23 00 00 00 46 00 8F 8B A9 8B C3 8B     А.!.#...F.ПЛ©Л√Л
1167: DD 8B F7 8B 11 8C 2B 8C 45 8C 5F 8C 79 8C 93 8C     ЁЛчЛ.М+МEМ_МyМУМ
1177: AD 8C C7 8C E1 8C FB 8C 15 8D 2F 8D 49 8D 63 8D     ≠М«МбМыМ.Н/НIНcН
1187: 7D 8D 97 8D B1 8D CB 8D E5 8D FF 8D 19 8E 33 8E     }НЧН±НЋНеН€Н.О3О
1197: 4D 8E 67 8E 81 8E 9B 8E B5 8E CF 8E E9 8E 03 8F     MОgОБОЫОµОѕОйО.П
11A7: 1D 8F 37 8F FF FF FF FF FF FF FF FF FF FF FF FF     .П7П€€€€€€€€€€€€
11B7: FF FF FF FF FF FF FF FF FF FF FF FF FF FF FF FF     €€€€€€€€€€€€€€€€
11C7: FF FF FF FF 51 8F FF FF 6B 8F FF FF 85 8F 9F 8F     €€€€QП€€kП€€ЕПЯП
11D7: FF FF FF FF FF FF B9 8F FF FF FF FF FF FF D3 8F     €€€€€€єП€€€€€€”П
11E7: ED 8F 07 90 21 90 00 00 00 00 00 00 83 00 17 00     нП.Р!Р......Г...
11F7: 18 00 19 00 90 00 0A 00 0B 00 0C 00 0D 00 0E 00     ....Р...........
1207: 1A 00 1E 00 1F 00 75 00 76 00 7D 00 01 00 20 00     ......u.v.}... .
1217: 0F 00 10 00 11 00 12 00 26 00 27 00 28 00 29 00     ........&.'.(.).
1227: 51 00 2A 00 2B 00 2C 00 2D 00 2E 00 37 00 38 00     Q.*.+.,.-...7.8.
1237: 13 00 14 00 02 00 59 00 5A 00 03 00 08 00 5B 00     ......Y.Z.....[.
1247: 5E 00 69 00 6A 00 6D 00 6F 00 71 00 72 00 53 00     ^.i.j.m.o.q.r.S.
1257: 5F 00 64 00 65 00 25 00 FF FF FF FF 55 00 56 00     _.d.e.%.€€€€U.V.
1267: 57 00 FF FF FF FF FF FF FF FF FF FF FF FF FF FF     W.€€€€€€€€€€€€€€
1277: FF FF FF FF FF FF FF FF FF FF FF FF FF FF FF FF     €€€€€€€€€€€€€€€€
1287: FF FF FF FF FF FF FF FF 3A 00 3B 00 3C 00 3D 00     €€€€€€€€:.;.<.=.
1297: 3E 00 3F 00 FF FF FF FF FF FF FF FF FF FF FF FF     >.?.€€€€€€€€€€€€
12A7: FF FF FF FF FF FF FF FF FF FF FF FF FF FF FF FF     €€€€€€€€€€€€€€€€
12B7: FF FF FF FF FF FF 04 00 58 00 87 00 FF FF FF FF     €€€€€€..X.З.€€€€
12C7: FF FF FF FF FF FF FF FF FF FF 8A 00 8B 00 8D 00     €€€€€€€€€€К.Л.Н.
12D7: FF FF FF FF FF FF FF FF 91 00 94 00 95 00 96 00     €€€€€€€€С.Ф.Х.Ц.
12E7: 97 00 98 00 9C 00 9D 00 FF FF FF FF FF FF A0 00     Ч.Ш.Ь.Э.€€€€€€†.
12F7: A3 00 A4 00 00 00 00 00 00 00 02 00 FF FF 1B 00     £.§.........€€..
1307: 00 00 06 00 39 00 1C 00 16 00 FF FF 1D 00 40 00     ....9.....€€..@.
1317: 00 00 00 00 00 00 00 00 00 00 00 00 00 00 00 00     ................
1327: 00 00 00 00 00 00 20 00 20 00 16 44 00 00 00 00     ...... . ..D....
1337: 16 44 20 00 00 00 20 00 20 00 20 00 16 44 20 00     .D ... . . ..D .
1347: FF FF 20 00 20 00 00 00 20 00 00 00 07 80 9C 27     €€ . ... ....АЬ'
1357: 00 01 02 00 01 00 3C 00 00 00 A8 01 02 00 01 00     ......<...®.....
1367: 3C 00 00 00 84 01 02 00 01 00 21 00 00 00 E0 01     <...Д.....!...а.
1377: 02 00 01 00 21 00 00 00 00 00 00 00 00 00 00 00     ....!...........
1387: 00 00 00 00 00 00 00 00 00 00 00 00 00 00 00 00     ................
1397: 00 00 00 00 00 00 00 00 00 00 00 00 00 00 00 00     ................
13A7: 00 00 00 00 00 00 00 00 00 00 00 00 00 00 00 00     ................
13B7: 00 00 00 00 00 00 00 00 00 00 00 00 00 00 00 00     ................
13C7: 00 00 00 00 00 00 00 00 00 00 00 00 00 00 00 00     ................
13D7: 00 00 00 00 00 00 00 00 00 00 00 00 00 00 00 00     ................
13E7: 00 00 00 00 00 00 00 00 00 00 00 00 00 00 00 00     ................
13F7: 00 00 00 00 00 00 00 00 00 00 00 00 00 00 00 00     ................
1407: 00 00 00 00 4D 6F 75 6E 74 69 6E 67 2E 2E 2E 0A     ....Mounting....
1417: 00 44 72 69 76 65 20 6E 6F 74 20 6D 6F 75 6E 74     .Drive not mount
1427: 65 64 2E 2E 2E 00 7A 6F 6E 65 5F 74 61 62 2E 64     ed....zone_tab.d
1437: 61 74 00 7A 6F 6E 65 5F 74 61 62 2E 67 63 69 00     at.zone_tab.gci.
1447: 7A 6F 6E 65 5F 74 61 62 2E 64 30 33 00 7A 6F 6E     zone_tab.d03.zon
1457: 65 5F 74 61 62 2E 67 30 33 00 7A 6F 6E 65 5F 74     e_tab.g03.zone_t
1467: 61 62 2E 64 30 40 00 7A 6F 6E 65 5F 74 61 62 2E     ab.d0@.zone_tab.
1477: 67 30 40 00 7A 6F 6E 65 5F 74 61 62 2E 64 30 50     g0@.zone_tab.d0P
1487: 00 7A 6F 6E 65 5F 74 61 62 2E 67 30 50 00 7A 6F     .zone_tab.g0P.zo
1497: 6E 65 5F 74 61 62 2E 64 30 4E 00 7A 6F 6E 65 5F     ne_tab.d0N.zone_
14A7: 74 61 62 2E 67 30 4E 00 7A 6F 6E 65 5F 74 61 62     tab.g0N.zone_tab
14B7: 2E 64 30 31 00 7A 6F 6E 65 5F 74 61 62 2E 67 30     .d01.zone_tab.g0
14C7: 31 00 7A 6F 6E 65 5F 74 61 62 2E 64 31 34 00 7A     1.zone_tab.d14.z
14D7: 6F 6E 65 5F 74 61 62 2E 67 31 34 00 7A 6F 6E 65     one_tab.g14.zone
14E7: 5F 74 61 62 2E 64 31 37 00 7A 6F 6E 65 5F 74 61     _tab.d17.zone_ta
14F7: 62 2E 67 31 37 00 7A 6F 6E 65 5F 74 61 62 2E 74     b.g17.zone_tab.t
1507: 78 66 00 41 1D A2 1D A2 1D A2 1D A2 1D A2 1D B3     xf.A.Ґ.Ґ.Ґ.Ґ.Ґ.≥
1517: 1D A2 1D 71 1E 71 1E B3 1D 06 1E AF 24 C7 24 DF     .Ґ.q.q.≥...ѓ$«$я
1527: 24                                                  $

[__MAXPROG]
32750
[__MAXMEM]
32768

[PROGRAM]
main
[CODESIZE]
11606
[MEMSIZE]
321
[ARGCOUNT]
0
[RETURNS]
NO
[STACKSIZE]
0 (AUTO)
[STACK_ESTIMATE]
246   (nb:- worst case estimate)
[MODE]
0

[PROJECT]
\\192.168.1.125\RetD_Projets\smart-Cool XL\programmation\zone tabac.4DWork\zone tabac.4DGenieS
C:\Program Files (x86)\4D Labs\4D Workshop 4 IDE\include\Gen4-uLCD-70DCT-CLB.fnc
C:\Program Files (x86)\4D Labs\4D Workshop 4 IDE\include\Diablo16_Functions.fnc
C:\Program Files (x86)\4D Labs\4D Workshop 4 IDE\include\4DGL_16bitColours.fnc
C:\Program Files (x86)\4D Labs\4D Workshop 4 IDE\include\VisualConst.inc
\\192.168.1.125\RetD_Projets\smart-Cool XL\programmation\zone tabac.4DWork\zone tabacConst.inc
C:\Program Files (x86)\4D Labs\4D Workshop 4 IDE\include\CLPrintStrings.inc
